                 BOCADILLOS
   Av. Conselheiro Moreira de Barros, 2096
---------------------------------------------
              08/09/2017 02:10
               N. Cupom: 1867
             *Sem valor fiscal*
*********************************************
             RELATORIO GERENCIAL
*********************************************
                    Itens
Cod. Produto                        Tot Qt V. UN      
1    ESFIHA CARNE                  0.99  1  0.99      
2    ESFIHA QUEIJO                 2.20  1  2.20      
4    ESFIHA CALABRESA              2.20  1  2.20      
7    ESFIHA BAURU                  2.90  1  2.90      
3    ESFIHA CATUPIRY               2.20  1  2.20      
------------------------------------------------
                                 TOTAL R$ 10,49
------------------------------------------------

Forma: Cartao de Debito
Senha: 587
--