                 BOCADILLOS
   Av. Conselheiro Moreira de Barros, 2096
---------------------------------------------
              08/09/2017 02:11
*********************************************
               Itens - Mesa 1
*********************************************
Cod. Produto                       V. U Qt Total      
125  PIZZA MUSSARELA               21.9  1 21.99      
0    1/2 CALABRESA 1/2 PORTUGUESA  29.0  1 29.00      
------------------------------------------------
SUBTOTAL R$ 50,99
*Taxa de Serviço R$ 5,10
TOTAL R$ 56,09
------------------------------------------------


--